{
    "ID" : "10000",
    "title" : "Walk Sandals",
    "price" : "75",
    "desc" : "Cushioned and sporty neoprene lining",
    "image" : "https://www.hotter.com/wcsstore7.00.00.1209/ExtendedSitesCatalogAssetStore/images/products/extralarge/WALKZPLATINM-LE.jpg"
}